55358643881655740645
51895131624408399061
33182259881168238770
63474296395005987998
53433225492149899312
39881213462440941156
46342833846281943498
17450874364025068153
46829570619498654895
57823941771401261126
39587341214894653128
79385440021952788109
47029314898651246343
52739414637096966057
49406668856662069879
49488824138775671466
28793643658938385992
08418555175828000495
24854002169221380905
17300680595641963712
21129279454722007717
17584547654796485562
64607007427890511332
97037247789497818512
23008346867438623301
33120175685542542011
89803434892899126707
54800190229451389773
73925418177511888693
37884450169220868157
91464808608781886191
20616198213849948960
